[
	{
		"letter":"A",
		"frequency": 1
	},
	{
		"letter":"B",
		"frequency": 2
	},
	{
		"letter":"D",
		"frequency": 2
	},
	{
		"letter":"F",
		"frequency": 3
	},
	{
		"letter":"G",
		"frequency": 7
	},
	{
		"letter":"S",
		"frequency": 12
	},
	{
		"letter":"K",
		"frequency": 22
	},
	{
		"letter":"T",
		"frequency": 5
	}
]